…
pols_month
```

    ## # A tibble: 822 × 9
    ##    year month gov_gop sen_gop rep_gop gov_dem sen_dem rep_dem president
    ##   <int> <chr>   <dbl>   <dbl>   <dbl>   <dbl>   <dbl>   <dbl> <chr>    
    ## 1  1947 Jan        23      51     253      23      45     198 dem      
    ## 2  1947 Feb        23      51     253      23      45     198 dem      
    ## 3  1947 Mar        23      51     253      23      45     198 dem      
    ## 4  1947 Apr        23      51     253      23      45     198 dem      
    ## 5  1947 May        23      51     253      23      45     198 dem      
    ## # ℹ 817 more rows
…
snp
```

    ## # A tibble: 787 × 3
    ##    year month close
    ##   <dbl> <chr> <dbl>
    ## 1  1950 Jan    17.0
    ## 2  1950 Feb    17.2
    ## 3  1950 Mar    17.3
    ## 4  1950 Apr    18.0
    ## 5  1950 May    18.8
    ## # ℹ 782 more rows
…
unemployment_tidy
```

    ## # A tibble: 816 × 3
    ##    year month unemployment_rate
    ##   <dbl> <chr>             <dbl>
    ## 1  1948 Jan                 3.4
    ## 2  1948 Feb                 3.8
    ## 3  1948 Mar                 4  
    ## 4  1948 Apr                 3.9
    ## 5  1948 May                 3.5
    ## # ℹ 811 more rows

## 1.4

``` r
d1 <- pols_month |>
  left_join(snp, by = c("year", "month")) |>
  left_join(unemployment_tidy, by = c("year", "month")) |>
  arrange(year, match(month, month.abb))

d1
```

    ## # A tibble: 822 × 11
    ##    year month gov_gop sen_gop rep_gop gov_dem sen_dem rep_dem president close
    ##   <dbl> <chr>   <dbl>   <dbl>   <dbl>   <dbl>   <dbl>   <dbl> <chr>     <dbl>
    ## 1  1947 Jan        23      51     253      23      45     198 dem          NA
    ## 2  1947 Feb        23      51     253      23      45     198 dem          NA
    ## 3  1947 Mar        23      51     253      23      45     198 dem          NA
    ## 4  1947 Apr        23      51     253      23      45     198 dem          NA
    ## 5  1947 May        23      51     253      23      45     198 dem          NA
    ## # ℹ 817 more rows
    ## # ℹ 1 more variable: unemployment_rate <dbl>

``` r
# Create date variable version
d2 <- pols_month |>
  left_join(snp, by = c("year", "month")) |>
  left_join(unemployment_tidy, by = c("year", "month")) |>
  mutate(date = str_c(year, "-", sprintf("%02d", match(month, month.abb)))) |>
  relocate(date) |>
  select(-year, -month) |>
  arrange(date)

d2
```

    ## # A tibble: 822 × 10
    ##   date    gov_gop sen_gop rep_gop gov_dem sen_dem rep_dem president close
    ##   <chr>     <dbl>   <dbl>   <dbl>   <dbl>   <dbl>   <dbl> <chr>     <dbl>
    ## 1 1947-01      23      51     253      23      45     198 dem          NA
    ## 2 1947-02      23      51     253      23      45     198 dem          NA
    ## 3 1947-03      23      51     253      23      45     198 dem          NA
    ## 4 1947-04      23      51     253      23      45     198 dem          NA
    ## 5 1947-05      23      51     253      23      45     198 dem          NA
    ## # ℹ 817 more rows
    ## # ℹ 1 more variable: unemployment_rate <dbl>
…
    ## New names:
    ## • `` -> `...15`
    ## • `` -> `...16`

``` r
mr_tidy
```

    ## # A tibble: 707 × 17
    ##   dumpster month  year date                weight_tons volume_cubic_yards
    ##      <dbl> <chr> <int> <dttm>                    <dbl>              <dbl>
    ## 1        1 May    2014 2014-05-16 00:00:00        4.31                 18
    ## 2        2 May    2014 2014-05-16 00:00:00        2.74                 13
    ## 3        3 May    2014 2014-05-16 00:00:00        3.45                 15
    ## 4        4 May    2014 2014-05-17 00:00:00        3.1                  15
    ## 5        5 May    2014 2014-05-17 00:00:00        4.06                 18
    ## # ℹ 702 more rows
    ## # ℹ 11 more variables: plastic_bottles <dbl>, polystyrene <dbl>,
    ## #   cigarette_butts <dbl>, glass_bottles <dbl>, plastic_bags <dbl>,
    ## #   wrappers <dbl>, sports_balls <int>, homes_powered <dbl>, x15 <lgl>,
    ## #   x16 <lgl>, trash_wheel <chr>
…
professor_tidy
```

    ## # A tibble: 132 × 14
    ##   dumpster month     year date                weight_tons volume_cubic_yards
    ##      <dbl> <chr>    <int> <dttm>                    <dbl>              <dbl>
    ## 1        1 January   2017 2017-01-02 00:00:00        1.79                 15
    ## 2        2 January   2017 2017-01-30 00:00:00        1.58                 15
    ## 3        3 February  2017 2017-02-26 00:00:00        2.32                 18
    ## 4        4 February  2017 2017-02-26 00:00:00        3.72                 15
    ## 5        5 February  2017 2017-02-28 00:00:00        1.45                 15
    ## # ℹ 127 more rows
    ## # ℹ 8 more variables: plastic_bottles <dbl>, polystyrene <dbl>,
    ## #   cigarette_butts <dbl>, glass_bottles <dbl>, plastic_bags <dbl>,
    ## #   wrappers <dbl>, homes_powered <dbl>, trash_wheel <chr>
…
gwynnda_tidy
```

    ## # A tibble: 349 × 13
    ##   dumpster month  year date                weight_tons volume_cubic_yards
    ##      <dbl> <chr> <int> <dttm>                    <dbl>              <dbl>
    ## 1        1 July   2021 2021-07-03 00:00:00        0.93                 15
    ## 2        2 July   2021 2021-07-07 00:00:00        2.26                 15
    ## 3        3 July   2021 2021-07-07 00:00:00        1.62                 15
    ## 4        4 July   2021 2021-07-16 00:00:00        1.76                 15
    ## 5        5 July   2021 2021-07-30 00:00:00        1.53                 15
    ## # ℹ 344 more rows
    ## # ℹ 7 more variables: plastic_bottles <dbl>, polystyrene <dbl>,
    ## #   cigarette_butts <dbl>, plastic_bags <dbl>, wrappers <dbl>,
    ## #   homes_powered <dbl>, trash_wheel <chr>

``` r
#combine
combined_trash <- bind_rows(mr_tidy, professor_tidy, gwynnda_tidy) |>
  select(-contains("..."), -starts_with("x")) |>
  arrange(date)

combined_trash
```

    ## # A tibble: 1,188 × 15
    ##   dumpster month  year date                weight_tons volume_cubic_yards
    ##      <dbl> <chr> <int> <dttm>                    <dbl>              <dbl>
    ## 1        1 May    2014 2014-05-16 00:00:00        4.31                 18
    ## 2        2 May    2014 2014-05-16 00:00:00        2.74                 13
    ## 3        3 May    2014 2014-05-16 00:00:00        3.45                 15
    ## 4        4 May    2014 2014-05-17 00:00:00        3.1                  15
    ## 5        5 May    2014 2014-05-17 00:00:00        4.06                 18
    ## # ℹ 1,183 more rows
    ## # ℹ 9 more variables: plastic_bottles <dbl>, polystyrene <dbl>,
    ## #   cigarette_butts <dbl>, glass_bottles <dbl>, plastic_bags <dbl>,
    ## #   wrappers <dbl>, sports_balls <int>, homes_powered <dbl>, trash_wheel <chr>
…
    ## Rows: 322 Columns: 7
    ## ── Column specification ────────────────────────────────────────────────────────
    ## Delimiter: ","
    ## chr (4): County, County Code, File Date, Neighborhood
    ## dbl (3): State FIPS, County FIPS, ZipCode
    ## 
    ## ℹ Use `spec()` to retrieve the full column specification for this data.
    ## ℹ Specify the column types or set `show_col_types = FALSE` to quiet this message.

``` r
zip_codes_tidy
```

    ## # A tibble: 322 × 7
    ##   zip_code county   state_fips county_code county_fips file_date neighborhood   
    ##      <dbl> <chr>         <dbl> <chr>             <dbl> <chr>     <chr>          
    ## 1    10001 New York         36 061               36061 7/25/07   Chelsea and Cl…
    ## 2    10002 New York         36 061               36061 7/25/07   Lower East Side
    ## 3    10003 New York         36 061               36061 7/25/07   Lower East Side
    ## 4    10004 New York         36 061               36061 7/25/07   Lower Manhattan
    ## 5    10005 New York         36 061               36061 7/25/07   Lower Manhattan
    ## # ℹ 317 more rows
…
zip_zori_tidy
```

    ## # A tibble: 17,284 × 11
    ##   region_name region_id size_rank region_type state_name state city     metro   
    ##         <dbl>     <dbl>     <dbl> <chr>       <chr>      <chr> <chr>    <chr>   
    ## 1       10001     61615      4444 zip         NY         NY    New York New Yor…
    ## 2       10001     61615      4444 zip         NY         NY    New York New Yor…
    ## 3       10001     61615      4444 zip         NY         NY    New York New Yor…
    ## 4       10001     61615      4444 zip         NY         NY    New York New Yor…
    ## 5       10001     61615      4444 zip         NY         NY    New York New Yor…
    ## # ℹ 17,279 more rows
    ## # ℹ 3 more variables: county_name <chr>, date <chr>, zori <dbl>
…
    ## Warning in left_join(zip_zori_tidy, zip_codes_tidy, by = c(region_name = "zip_code")): Detected an unexpected many-to-many relationship between `x` and `y`.
    ## ℹ Row 7541 of `x` matches multiple rows in `y`.
    ## ℹ Row 1 of `y` matches multiple rows in `x`.
    ## ℹ If a many-to-many relationship is expected, set `relationship =
    ##   "many-to-many"` to silence this warning.

``` r
resulting_tidy_data
```

    ## # A tibble: 17,516 × 16
    ##   region_name region_id size_rank region_type state_name state city     metro   
    ##         <dbl>     <dbl>     <dbl> <chr>       <chr>      <chr> <chr>    <chr>   
    ## 1       10001     61615      4444 zip         NY         NY    New York New Yor…
    ## 2       10001     61615      4444 zip         NY         NY    New York New Yor…
    ## 3       10001     61615      4444 zip         NY         NY    New York New Yor…
    ## 4       10001     61615      4444 zip         NY         NY    New York New Yor…
    ## 5       10001     61615      4444 zip         NY         NY    New York New Yor…
    ## # ℹ 17,511 more rows
    ## # ℹ 8 more variables: county <chr>, date <chr>, zori <dbl>, county_code <chr>,
    ## #   county_fips <dbl>, state_fips <dbl>, file_date <chr>, neighborhood <chr>

``` r
#Check for completeness
missing_zips <- zip_codes_tidy |>
  anti_join(zip_zori_tidy, by = c("zip_code" = "region_name")) |>
  select(zip_code, county, neighborhood)

missing_zips
```

    ## # A tibble: 171 × 3
    ##   zip_code county   neighborhood       
    ##      <dbl> <chr>    <chr>              
    ## 1    10008 New York <NA>               
    ## 2    10020 New York Chelsea and Clinton
    ## 3    10041 New York <NA>               
    ## 4    10043 New York <NA>               
    ## 5    10045 New York <NA>               
    ## # ℹ 166 more rows
…
